Assignment 3
…
numofcountries <- gapminder%>%
  group_by(continent, year)%>%
  mutate(total_countries = length(unique(country)))%>%
  filter(lifeExp<59.47444)%>%
  group_by(continent, year)%>%
  mutate(no_of_countries = length(unique(country)))%>%
  mutate(proportion = no_of_countries/total_countries)%>%
  select(continent, year, proportion, no_of_countries, total_countries)%>%
  as_tibble()

print(numofcountries)

## # A tibble: 809 x 5
##    continent  year proportion no_of_countries total_countries
##    <fct>     <int>      <dbl>           <int>           <int>
##  1 Asia       1952      0.879              29              33
##  2 Asia       1957      0.788              26              33
##  3 Asia       1962      0.758              25              33
##  4 Asia       1967      0.697              23              33
##  5 Asia       1972      0.576              19              33
##  6 Asia       1977      0.424              14              33
##  7 Asia       1982      0.333              11              33
##  8 Asia       1987      0.242               8              33
##  9 Asia       1992      0.212               7              33
## 10 Asia       1997      0.182               6              33
## #  with 799 more rows
…
